{
  "subgroups": {
    "name": "Subgroups",
    "stage": "manage",
    "group": "workspace",
    "label": "Category:Subgroups",
    "feature_labels": [
      "group templates",
      "subgroups"
    ]
  },
  "projects": {
    "name": "Projects",
    "stage": "manage",
    "group": "workspace",
    "label": "Category:Projects",
    "feature_labels": []
  },
  "authentication_and_authorization": {
    "name": "Authentication and Authorization",
    "stage": "manage",
    "group": "authentication_and_authorization",
    "label": "Category:Authentication and Authorization",
    "feature_labels": [
      "authentication",
      "authorization"
    ]
  },
  "permissions": {
    "name": "Permissions",
    "stage": "manage",
    "group": "authentication_and_authorization",
    "label": "Category:Permissions",
    "feature_labels": [
      "custom permissions",
      "standard roles"
    ]
  },
  "user_management": {
    "name": "User Management",
    "stage": "manage",
    "group": "authentication_and_authorization",
    "label": "Category:User Management",
    "feature_labels": [
      "user management"
    ]
  },
  "system_access": {
    "name": "System Access",
    "stage": "manage",
    "group": "authentication_and_authorization",
    "label": "Category:System Access",
    "feature_labels": [
      "saml",
      "ldap",
      "oauth",
      "authentication",
      "2FA"
    ]
  },
  "credential_management": {
    "name": "Credential Management",
    "stage": "manage",
    "group": "authentication_and_authorization",
    "label": "Category:Credential Management",
    "feature_labels": [
      "access token",
      "service account"
    ]
  },
  "users": {
    "name": "User Profile",
    "stage": "manage",
    "group": "workspace",
    "label": "Category:User Profile",
    "feature_labels": [
      "user profile",
      "user creation",
      "user settings"
    ]
  },
  "devops_reports": {
    "name": "DevOps Reports",
    "stage": "manage",
    "group": null,
    "label": "Category:DevOps Reports",
    "feature_labels": [
      "convdev",
      "devops score"
    ]
  },
  "importers": {
    "name": "Importers",
    "stage": "manage",
    "group": "import",
    "label": "Category:Importers",
    "feature_labels": [
      "import",
      "project export",
      "project import"
    ]
  },
  "internationalization": {
    "name": "Internationalization",
    "stage": "manage",
    "group": "import",
    "label": "Category:Internationalization",
    "feature_labels": []
  },
  "value_stream_management": {
    "name": "Value Stream Management",
    "stage": "manage",
    "group": null,
    "label": "Category:Value Stream Management",
    "feature_labels": [
      "value stream analytics"
    ]
  },
  "dora_metrics": {
    "name": "DORA Metrics",
    "stage": "manage",
    "group": null,
    "label": "Category:DORA Metrics",
    "feature_labels": [
      "DORA Metrics"
    ]
  },
  "team_planning": {
    "name": "Team Planning",
    "stage": "plan",
    "group": "project_management",
    "label": "Category:Team Planning",
    "feature_labels": [
      "Issues list",
      "issue weight",
      "issues",
      "labels",
      "markdown",
      "milestones",
      "iterations",
      "notifications",
      "quick actions",
      "todos",
      "time tracking",
      "boards",
      "discussions",
      "internal notes",
      "work items"
    ]
  },
  "planning_analytics": {
    "name": "Planning Analytics",
    "stage": "plan",
    "group": "project_management",
    "label": "Category:Planning Analytics",
    "feature_labels": []
  },
  "portfolio_management": {
    "name": "Portfolio Management",
    "stage": "plan",
    "group": "product_planning",
    "label": "Category:Portfolio Management",
    "feature_labels": [
      "sub epics",
      "epic boards",
      "roadmaps",
      "epics",
      "health status",
      "linked items",
      "parent/child items widget"
    ]
  },
  "service_desk": {
    "name": "Service Desk",
    "stage": "plan",
    "group": "certify",
    "label": "Category:Service Desk",
    "feature_labels": [
      "service desk issues",
      "customer relationships management"
    ]
  },
  "requirements_management": {
    "name": "Requirements Management",
    "stage": "plan",
    "group": "certify",
    "label": "Category:Requirements Management",
    "feature_labels": [
      "requirements",
      "link requirements to test cases",
      "merge request to issue traceability",
      "issue description diff"
    ]
  },
  "quality_management": {
    "name": "Quality Management",
    "stage": "plan",
    "group": "certify",
    "label": "Category:Quality Management",
    "feature_labels": [
      "test cases"
    ]
  },
  "design_management": {
    "name": "Design Management",
    "stage": "plan",
    "group": "product_planning",
    "label": "Category:Design Management",
    "feature_labels": [
      "design assets",
      "link issues to designs",
      "figma plugin"
    ]
  },
  "navigation": {
    "name": "Navigation & Settings",
    "stage": "manage",
    "group": "foundations",
    "label": "Category:Navigation & Settings",
    "feature_labels": []
  },
  "source_code_management": {
    "name": "Source Code Management",
    "stage": "create",
    "group": "source_code",
    "label": "Category:Source Code Management",
    "feature_labels": [
      "encoding",
      "forking",
      "lfs",
      "mirror",
      "repository"
    ]
  },
  "code_review": {
    "name": "Code Review",
    "stage": "create",
    "group": "code_review",
    "label": "Category:Code Review",
    "feature_labels": [
      "image diff",
      "diff",
      "approvals",
      "merge requests"
    ]
  },
  "wiki": {
    "name": "Wiki",
    "stage": "create",
    "group": "editor",
    "label": "Category:Wiki",
    "feature_labels": []
  },
  "pages": {
    "name": "Pages",
    "stage": "create",
    "group": "editor",
    "label": "Category:Pages",
    "feature_labels": []
  },
  "git_lfs": {
    "name": "Git LFS",
    "stage": "create",
    "group": "source_code",
    "label": "Category:Git LFS",
    "feature_labels": []
  },
  "gitlab_handbook": {
    "name": "GitLab Handbook",
    "stage": "create",
    "group": null,
    "label": "Category:GitLab Handbook",
    "feature_labels": []
  },
  "gitlab_docs": {
    "name": "GitLab Documentation Site",
    "stage": "manage",
    "group": "foundations",
    "label": "Category:Docs Site",
    "feature_labels": [
      "gitlab docs"
    ]
  },
  "web_ide": {
    "name": "Web IDE",
    "stage": "create",
    "group": "editor",
    "label": "Category:Web IDE",
    "feature_labels": [
      "Category:Web IDE",
      "Web IDE::Live Preview"
    ]
  },
  "editor_extension": {
    "name": "Editor Extension",
    "stage": "create",
    "group": "code_review",
    "label": "Category:Editor Extension",
    "feature_labels": [
      "VS Code"
    ]
  },
  "snippets": {
    "name": "Snippets",
    "stage": "create",
    "group": "editor",
    "label": "Category:Snippets",
    "feature_labels": []
  },
  "remote_development": {
    "name": "Remote Development",
    "stage": "create",
    "group": "editor",
    "label": "Category:Remote Development",
    "feature_labels": [
      "Category:Remote Development"
    ]
  },
  "integrations": {
    "name": "Integrations",
    "stage": "manage",
    "group": "integrations",
    "label": "Category:Integrations",
    "feature_labels": [
      "Category:Integrations"
    ]
  },
  "design_system": {
    "name": "Design System",
    "stage": "manage",
    "group": "foundations",
    "label": "Category:Design System",
    "feature_labels": [
      "Category:Foundations"
    ]
  },
  "continuous_integration": {
    "name": "Continuous Integration (CI)",
    "stage": "verify",
    "group": "pipeline_execution",
    "label": "Category:Continuous Integration",
    "feature_labels": [
      "ci::usage",
      "ci::processing",
      "ci::permissions",
      "ci::api-interactions",
      "ci::notifications",
      "ci::metrics",
      "ci::merge-request"
    ]
  },
  "continuous_integration_scaling": {
    "name": "Continuous Integration Scaling (CI Scaling)",
    "stage": "verify",
    "group": "pipeline_execution",
    "label": "Category:Continuous Integration Scaling",
    "feature_labels": [
      "ci::scaling"
    ]
  },
  "pipeline_authoring": {
    "name": "Pipeline Authoring",
    "stage": "verify",
    "group": "pipeline_authoring",
    "label": "Category:Pipeline Authoring",
    "feature_labels": [
      "ci::persistence",
      "ci::variables",
      "ci::rules",
      "ci::integrations",
      "ci::bridge-pipelines",
      "ci::dag",
      "ci::pipeline-graphs"
    ]
  },
  "secrets_management": {
    "name": "Secrets Management",
    "stage": "verify",
    "group": "pipeline_authoring",
    "label": "Category:Secrets Management",
    "feature_labels": [
      "ci::variables"
    ]
  },
  "runner": {
    "name": "GitLab Runner Core",
    "stage": "verify",
    "group": "runner",
    "label": "Category:Runner Core",
    "feature_labels": []
  },
  "runner_saas": {
    "name": "GitLab Runner SaaS",
    "stage": "verify",
    "group": "runner",
    "label": "Category:Runner SaaS",
    "feature_labels": []
  },
  "runner_fleet": {
    "name": "Runner Fleet",
    "stage": "verify",
    "group": "runner",
    "label": "Category:Runner Fleet",
    "feature_labels": []
  },
  "jenkins_importer": {
    "name": "Jenkins Importer",
    "stage": "verify",
    "group": "pipeline_authoring",
    "label": "Category:Jenkins Importer",
    "feature_labels": []
  },
  "code_testing": {
    "name": "Code Testing and Coverage",
    "stage": "verify",
    "group": "pipeline_insights",
    "label": "Category:Code Testing and Coverage",
    "feature_labels": [
      "testing::code testing",
      "testing::coverage",
      "testing::accessibility"
    ]
  },
  "build_artifacts": {
    "name": "Build Artifacts",
    "stage": "verify",
    "group": "pipeline_insights",
    "label": "Category:Build Artifacts",
    "feature_labels": []
  },
  "performance_testing": {
    "name": "Performance Testing",
    "stage": "verify",
    "group": "pipeline_insights",
    "label": "Category:Performance Testing",
    "feature_labels": [
      "testing::browser performance",
      "testing::load performance"
    ]
  },
  "merge_trains": {
    "name": "Merge Trains",
    "stage": "verify",
    "group": "pipeline_execution",
    "label": "Category:Merge Trains",
    "feature_labels": []
  },
  "review_apps": {
    "name": "Review Apps",
    "stage": "verify",
    "group": "pipeline_insights",
    "label": "Category:Review Apps",
    "feature_labels": [
      "testing::review apps",
      "testing::visual review tool",
      "testing::usability"
    ]
  },
  "package_registry": {
    "name": "Package Registry",
    "stage": "package",
    "group": "package_registry",
    "label": "Category:Package Registry",
    "feature_labels": []
  },
  "container_registry": {
    "name": "Container Registry",
    "stage": "package",
    "group": "container_registry",
    "label": "Category:Container Registry",
    "feature_labels": []
  },
  "helm_chart_registry": {
    "name": "Helm Chart Registry",
    "stage": "package",
    "group": "package_registry",
    "label": "Category:Helm Chart Registry",
    "feature_labels": []
  },
  "dependency_proxy": {
    "name": "Dependency Proxy",
    "stage": "package",
    "group": "container_registry",
    "label": "Category:Dependency Proxy",
    "feature_labels": []
  },
  "dependency_firewall": {
    "name": "Dependency Firewall",
    "stage": "package",
    "group": "container_registry",
    "label": "Category:Dependency Firewall",
    "feature_labels": []
  },
  "static_application_security_testing": {
    "name": "SAST",
    "stage": "secure",
    "group": "static_analysis",
    "label": "Category:SAST",
    "feature_labels": []
  },
  "secret_detection": {
    "name": "Secret Detection",
    "stage": "secure",
    "group": "static_analysis",
    "label": "group::static analysis",
    "feature_labels": []
  },
  "code_quality": {
    "name": "Code Quality",
    "stage": "secure",
    "group": "static_analysis",
    "label": "Category:Code Quality",
    "feature_labels": []
  },
  "dynamic_application_security_testing": {
    "name": "DAST",
    "stage": "secure",
    "group": "dynamic_analysis",
    "label": "Category:DAST",
    "feature_labels": []
  },
  "interactive_application_security_testing": {
    "name": "IAST",
    "stage": "secure",
    "group": "dynamic_analysis",
    "label": "Category:IAST",
    "feature_labels": []
  },
  "api_security": {
    "name": "API Security",
    "stage": "secure",
    "group": "dynamic_analysis",
    "label": "Category:API Security",
    "feature_labels": []
  },
  "fuzz_testing": {
    "name": "Fuzz Testing",
    "stage": "secure",
    "group": "dynamic_analysis",
    "label": "category::fuzz testing",
    "feature_labels": []
  },
  "dependency_scanning": {
    "name": "Dependency Scanning",
    "stage": "secure",
    "group": "composition_analysis",
    "label": "Category:Dependency Scanning",
    "feature_labels": []
  },
  "container_scanning": {
    "name": "Container Scanning",
    "stage": "secure",
    "group": "composition_analysis",
    "label": "Category:Container Scanning",
    "feature_labels": []
  },
  "license_compliance": {
    "name": "License Compliance",
    "stage": "secure",
    "group": "composition_analysis",
    "label": "Category:License Compliance",
    "feature_labels": []
  },
  "advisory_database": {
    "name": "GitLab Advisory Database",
    "stage": "secure",
    "group": "vulnerability_research",
    "label": "Category:GitLab Advisory Database",
    "feature_labels": []
  },
  "security_benchmarking": {
    "name": "Security Benchmarking",
    "stage": "secure",
    "group": "vulnerability_research",
    "label": "group::vulnerability research",
    "feature_labels": []
  },
  "attack_emulation": {
    "name": "Attack Emulation",
    "stage": "secure",
    "group": "dynamic_analysis",
    "label": "Category:Attack Emulation",
    "feature_labels": []
  },
  "audit_events": {
    "name": "Audit Events",
    "stage": "govern",
    "group": "compliance",
    "label": "Category:Audit Events",
    "feature_labels": []
  },
  "compliance_management": {
    "name": "Compliance Management",
    "stage": "govern",
    "group": "compliance",
    "label": "Category:Compliance Management",
    "feature_labels": []
  },
  "security_policy_management": {
    "name": "Security Policy Management",
    "stage": "govern",
    "group": "security_policies",
    "label": "Category:Security Policy Management",
    "feature_labels": []
  },
  "vulnerability_management": {
    "name": "Vulnerability Management",
    "stage": "govern",
    "group": "threat_insights",
    "label": "group::threat insights",
    "feature_labels": [
      "security dashboard",
      "security reports",
      "security reports integration",
      "vulnerability interaction"
    ]
  },
  "dependency_management": {
    "name": "Dependency Management",
    "stage": "govern",
    "group": "threat_insights",
    "label": "group::threat insights",
    "feature_labels": [
      "dependency list"
    ]
  },
  "insider_threat": {
    "name": "Insider Threat",
    "stage": "anti-abuse",
    "group": "anti-abuse",
    "label": "Category:Insider Threat",
    "feature_labels": [
      "Arkose"
    ]
  },
  "instance_resiliency": {
    "name": "Instance Resiliency",
    "stage": "anti-abuse",
    "group": "anti-abuse",
    "label": "Category:Instance Resiliency",
    "feature_labels": [
      "pipeline abuse prevention"
    ]
  },
  "continuous_delivery": {
    "name": "Continuous Delivery",
    "stage": "release",
    "group": "release",
    "label": "Category:Continuous Delivery",
    "feature_labels": [
      "deploy freeze",
      "deploy keys"
    ]
  },
  "advanced_deployments": {
    "name": "Advanced Deployments",
    "stage": "release",
    "group": "release",
    "label": "Category:Advanced Deployments",
    "feature_labels": []
  },
  "feature_flags": {
    "name": "Feature Flags",
    "stage": "release",
    "group": "release",
    "label": "Category:Feature Flags",
    "feature_labels": []
  },
  "release_evidence": {
    "name": "Release Evidence",
    "stage": "release",
    "group": "release",
    "label": "Category:Release Evidence",
    "feature_labels": []
  },
  "release_orchestration": {
    "name": "Release Orchestration",
    "stage": "release",
    "group": "release",
    "label": "Category:Release Orchestration",
    "feature_labels": []
  },
  "environment_management": {
    "name": "Environment Management",
    "stage": "release",
    "group": "release",
    "label": "Category:Environment Management",
    "feature_labels": []
  },
  "auto_devops": {
    "name": "Auto DevOps",
    "stage": "configure",
    "group": "configure",
    "label": "Category:Auto DevOps",
    "feature_labels": []
  },
  "kubernetes_management": {
    "name": "Kubernetes Management",
    "stage": "configure",
    "group": "configure",
    "label": "Category:Kubernetes Management",
    "feature_labels": []
  },
  "deployment_management": {
    "name": "Deployment Management",
    "stage": "configure",
    "group": "configure",
    "label": "Category:Deployment Management",
    "feature_labels": []
  },
  "chatops": {
    "name": "ChatOps",
    "stage": "configure",
    "group": "configure",
    "label": "Category:ChatOps",
    "feature_labels": []
  },
  "infrastructure_as_code": {
    "name": "Infrastructure as Code",
    "stage": "configure",
    "group": "configure",
    "label": "Category:Infrastructure as Code",
    "feature_labels": []
  },
  "cluster_cost_management": {
    "name": "Cluster Cost Management",
    "stage": "configure",
    "group": "configure",
    "label": "Category:Cluster Cost Management",
    "feature_labels": []
  },
  "runbooks": {
    "name": "Runbooks",
    "stage": "monitor",
    "group": "respond",
    "label": "Category:Runbooks",
    "feature_labels": []
  },
  "metrics": {
    "name": "Metrics",
    "stage": "monitor",
    "group": "observability",
    "label": "Category:Metrics",
    "feature_labels": []
  },
  "incident_management": {
    "name": "Incident Management",
    "stage": "monitor",
    "group": "respond",
    "label": "Category:Incident Management",
    "feature_labels": []
  },
  "on_call_schedule_management": {
    "name": "On-call Schedule Management",
    "stage": "monitor",
    "group": "respond",
    "label": "Category:On-call Schedule Management",
    "feature_labels": []
  },
  "logging": {
    "name": "Logging",
    "stage": "monitor",
    "group": "observability",
    "label": "Category:Logging",
    "feature_labels": []
  },
  "tracing": {
    "name": "Tracing",
    "stage": "monitor",
    "group": "observability",
    "label": "Category:Tracing",
    "feature_labels": []
  },
  "error_tracking": {
    "name": "Error Tracking",
    "stage": "monitor",
    "group": "observability",
    "label": "Category:Error Tracking",
    "feature_labels": []
  },
  "continuous_verification": {
    "name": "Continuous Verification",
    "stage": "monitor",
    "group": "respond",
    "label": "Category:Continuous Verification",
    "feature_labels": []
  },
  "product_analytics": {
    "name": "Product Analytics",
    "stage": "analytics",
    "group": "product_analytics",
    "label": "Category:Product Analytics",
    "feature_labels": []
  },
  "service_ping": {
    "name": "Service Ping",
    "stage": "analytics",
    "group": "product_intelligence",
    "label": "Category:Service Ping",
    "feature_labels": []
  },
  "privacy_control_center": {
    "name": "Privacy Control Center",
    "stage": "analytics",
    "group": "product_intelligence",
    "label": "Category:Privacy Control Center",
    "feature_labels": []
  },
  "application_instrumentation": {
    "name": "Application instrumentation",
    "stage": "analytics",
    "group": "product_intelligence",
    "label": "Category:Application instrumentation",
    "feature_labels": []
  },
  "global_search": {
    "name": "Global Search",
    "stage": "data_stores",
    "group": "global_search",
    "label": "Category:Global Search",
    "feature_labels": [
      "elasticsearch"
    ]
  },
  "code_search": {
    "name": "Code Search",
    "stage": "data_stores",
    "group": null,
    "label": "Category:Code Search",
    "feature_labels": [
      "elasticsearch"
    ]
  },
  "omnibus_package": {
    "name": "Omnibus Package",
    "stage": "systems",
    "group": "distribution_deploy",
    "label": "Category:Omnibus Package",
    "feature_labels": []
  },
  "cloud_native_installation": {
    "name": "Cloud Native Installation",
    "stage": "systems",
    "group": "distribution_deploy",
    "label": "Category:Cloud Native Installation",
    "feature_labels": []
  },
  "build": {
    "name": "Build",
    "stage": "systems",
    "group": "distribution_build",
    "label": "Category:Build",
    "feature_labels": []
  },
  "backup_restore": {
    "name": "Backup/Restore of GitLab instances",
    "stage": "systems",
    "group": "geo",
    "label": "Category:Backup/Restore of GitLab instances",
    "feature_labels": []
  },
  "geo_replication": {
    "name": "Geo-replication",
    "stage": "systems",
    "group": "geo",
    "label": "Category:Geo-replication",
    "feature_labels": [
      "Geo Administration",
      "Geo GA",
      "Geo Next Gen",
      "Geo Performance",
      "Geo Replication/Sync",
      "Geo Verification/Accuracy",
      "Geo : Automatic Verification",
      "Geo : Kubernetes",
      "Geo : Replication Lag Warning",
      "Geo : Selective Sync"
    ]
  },
  "disaster_recovery": {
    "name": "Disaster Recovery",
    "stage": "systems",
    "group": "geo",
    "label": "Category:Disaster Recovery",
    "feature_labels": [
      "Geo DR"
    ]
  },
  "gitaly": {
    "name": "Gitaly",
    "stage": "systems",
    "group": "gitaly_cluster",
    "label": "Category:Gitaly",
    "feature_labels": [
      "Gitaly HA",
      "Gitaly Cluster"
    ]
  },
  "database": {
    "name": "Database",
    "stage": "data_stores",
    "group": "database",
    "label": "Category:Database",
    "feature_labels": []
  },
  "pods": {
    "name": "Pods",
    "stage": "data_stores",
    "group": "pods",
    "label": "Category:Pods",
    "feature_labels": []
  },
  "application_performance": {
    "name": "Application Performance",
    "stage": "data_stores",
    "group": "application_performance",
    "label": "Category:Application Performance",
    "feature_labels": []
  },
  "redis": {
    "name": "Redis",
    "stage": "data_stores",
    "group": "application_performance",
    "label": "Category:Redis",
    "feature_labels": []
  },
  "dedicated": {
    "name": "GitLab Dedicated",
    "stage": "platforms",
    "group": "dedicated",
    "label": "Category:GitLab Dedicated",
    "feature_labels": []
  },
  "pubsec_services": {
    "name": "US Public Sector Services",
    "stage": "platforms",
    "group": "pubsec_services",
    "label": "Category:US Public Sector Services",
    "feature_labels": []
  },
  "delivery": {
    "name": "Delivery",
    "stage": "platforms",
    "group": "delivery",
    "label": "Category:Delivery",
    "feature_labels": []
  },
  "scalability": {
    "name": "Scalability",
    "stage": "platforms",
    "group": "scalability",
    "label": "Category:Scalability",
    "feature_labels": []
  },
  "error_budgets": {
    "name": "Error Budgets",
    "stage": "platforms",
    "group": "scalability",
    "label": "Category:Error Budgets",
    "feature_labels": []
  },
  "infrastructure_cost_data": {
    "name": "Infrastructure Cost Data",
    "stage": "platforms",
    "group": "scalability",
    "label": "Category:Infrastructure Cost Data",
    "feature_labels": []
  },
  "experimentation_activation": {
    "name": "Activation Experiment",
    "stage": "growth",
    "group": "activation",
    "label": "Category:Activation Experiment",
    "feature_labels": []
  },
  "experimentation_adoption": {
    "name": "Adoption Experiment",
    "stage": "growth",
    "group": "activation",
    "label": "Category:Adoption Experiment",
    "feature_labels": []
  },
  "experimentation_conversion": {
    "name": "Conversion Experiment",
    "stage": "growth",
    "group": "acquisition",
    "label": "Category:Conversion Experiment",
    "feature_labels": []
  },
  "experimentation_expansion": {
    "name": "Expansion Experiment",
    "stage": "growth",
    "group": "acquisition",
    "label": "Category:Expansion Experiment",
    "feature_labels": []
  },
  "onboarding": {
    "name": "Onboarding",
    "stage": "growth",
    "group": "acquisition",
    "label": "Category:Onboarding",
    "feature_labels": []
  },
  "purchase": {
    "name": "Purchase",
    "stage": "fulfillment",
    "group": "purchase",
    "label": "Category:Purchase",
    "feature_labels": []
  },
  "commerce_integrations": {
    "name": "Commerce Integrations",
    "stage": "fulfillment",
    "group": "commerce_integrations",
    "label": "Category:Commerce Integrations",
    "feature_labels": []
  },
  "sm_provisioning": {
    "name": "SM Provisioning",
    "stage": "fulfillment",
    "group": "provision",
    "label": "Category:SM Provisioning",
    "feature_labels": []
  },
  "saas_provisioning": {
    "name": "SaaS Provisioning",
    "stage": "fulfillment",
    "group": "provision",
    "label": "Category:SaaS Provisioning",
    "feature_labels": []
  },
  "billing_and_payments": {
    "name": "Billing & Payments",
    "stage": "fulfillment",
    "group": "billing_and_subscription_management",
    "label": "Category:Billing & Payments",
    "feature_labels": []
  },
  "subscription_management": {
    "name": "Subscription Management",
    "stage": "fulfillment",
    "group": "billing_and_subscription_management",
    "label": "Category:Subscription Management",
    "feature_labels": []
  },
  "subscription_usage_reports": {
    "name": "Subscription Usage Reports",
    "stage": "fulfillment",
    "group": "utilization",
    "label": "Category:Subscription Usage Reports",
    "feature_labels": []
  },
  "subscription_cost_management": {
    "name": "Subscription Cost Management",
    "stage": "fulfillment",
    "group": "utilization",
    "label": "Category:Subscription Cost Management",
    "feature_labels": []
  },
  "fulfillment_infrastructure": {
    "name": "Fulfillment Infrastructure",
    "stage": "fulfillment",
    "group": "fulfillment_platform",
    "label": "Category:Fulfillment Infrastructure",
    "feature_labels": []
  },
  "fulfillment_developer_productivity": {
    "name": "Fulfillment Developer Productivity",
    "stage": "fulfillment",
    "group": "fulfillment_platform",
    "label": "Category:Fulfillment Developer Productivity",
    "feature_labels": []
  },
  "customersdot_application": {
    "name": "CustomersDot Application",
    "stage": "fulfillment",
    "group": "fulfillment_platform",
    "label": "Category:CustomersDot Application",
    "feature_labels": []
  },
  "fulfillment_admin_tooling": {
    "name": "Fulfillment Admin Tooling",
    "stage": "fulfillment",
    "group": "fulfillment_admin_tooling",
    "label": "Category:Fulfillment Admin Tooling",
    "feature_labels": []
  },
  "mlops": {
    "name": "MLOps",
    "stage": "modelops",
    "group": "mlops",
    "label": "Category:MLOps",
    "feature_labels": [
      "Python Notebooks"
    ]
  },
  "dataops": {
    "name": "DataOps",
    "stage": "modelops",
    "group": "dataops",
    "label": "Category:DataOps",
    "feature_labels": []
  },
  "workflow_automation": {
    "name": "Workflow Automation",
    "stage": "modelops",
    "group": "applied_ml",
    "label": "Category:Workflow Automation",
    "feature_labels": [
      "applied ml::reviewer-recommender"
    ]
  },
  "intel_code_security": {
    "name": "Intelligent Code Security",
    "stage": "modelops",
    "group": "applied_ml",
    "label": "Category:Intelligent Code Security",
    "feature_labels": []
  },
  "mobile_signing_deployment": {
    "name": "Mobile App Signing & Deployment Management",
    "stage": "mobile",
    "group": "moble_devops",
    "label": "group::MobileDevOps",
    "feature_labels": []
  },
  "five_minute_production_app": {
    "name": "5 Minute Production App",
    "stage": "deploy",
    "group": "5-min-app",
    "label": "group::5MinProduction",
    "feature_labels": []
  }
}
